<?xml version="1.0" encoding="UTF-8"?>
<svg width="108px" height="97px" viewBox="0 0 108 97" version="1.1" xmlns="http://www.w3.org/2000/svg" xmlns:xlink="http://www.w3.org/1999/xlink">
    <!-- Generator: Sketch 63.1 (92452) - https://sketch.com -->
    <title>Raining</title>
    <desc>Created with Sketch.</desc>
    <g id="Page-1" stroke="none" stroke-width="1" fill="none" fill-rule="evenodd">
        <g id="ICONS" transform="translate(-88.000000, -253.000000)" fill="#FFFFFF">
            <g id="Raining" transform="translate(88.500000, 253.000000)">
                <path d="M91.1841133,81.1896738 C91.5871639,80.4625512 92.5135882,80.2002397 93.2505812,80.6087616 L93.2505812,80.6087616 L93.3146291,80.644264 C94.0560666,81.0552495 94.3213346,81.9752139 93.9170489,82.7045647 L93.9170489,82.7045647 L86.4358867,96.2009384 C86.0328361,96.9280609 85.1064118,97.1903724 84.3694188,96.7818506 L84.3694188,96.7818506 L84.3053709,96.7463482 C83.5639334,96.3353627 83.2986654,95.4153983 83.7029511,94.6860475 L83.7029511,94.6860475 Z M66.5741133,81.1896738 C66.9771639,80.4625512 67.9035882,80.2002397 68.6405812,80.6087616 L68.6405812,80.6087616 L68.7046291,80.644264 C69.4460666,81.0552495 69.7113346,81.9752139 69.3070489,82.7045647 L69.3070489,82.7045647 L61.8258867,96.2009384 C61.4228361,96.9280609 60.4964118,97.1903724 59.7594188,96.7818506 L59.7594188,96.7818506 L59.6953709,96.7463482 C58.9539334,96.3353627 58.6886654,95.4153983 59.0929511,94.6860475 L59.0929511,94.6860475 Z M16.2841133,81.1896738 C16.6871639,80.4625512 17.6135882,80.2002397 18.3505812,80.6087616 L18.3505812,80.6087616 L18.4146291,80.644264 C19.1560666,81.0552495 19.4213346,81.9752139 19.0170489,82.7045647 L19.0170489,82.7045647 L11.5358867,96.2009384 C11.1328361,96.9280609 10.2064118,97.1903724 9.46941882,96.7818506 L9.46941882,96.7818506 L9.40537086,96.7463482 C8.66393336,96.3353627 8.3986654,95.4153983 8.80295115,94.6860475 L8.80295115,94.6860475 Z M43.0341133,81.1896738 C43.4371639,80.4625512 44.3635882,80.2002397 45.1005812,80.6087616 L45.1005812,80.6087616 L45.1646291,80.644264 C45.9060666,81.0552495 46.1713346,81.9752139 45.7670489,82.7045647 L45.7670489,82.7045647 L38.2858867,96.2009384 C37.8828361,96.9280609 36.9564118,97.1903724 36.2194188,96.7818506 L36.2194188,96.7818506 L36.1553709,96.7463482 C35.4139334,96.3353627 35.1486654,95.4153983 35.5529511,94.6860475 L35.5529511,94.6860475 Z M53.218654,81.1463792 C53.6290202,80.4060591 54.5502736,80.1475491 55.2843756,80.5544684 L55.2843756,80.5544684 L55.4852741,80.6658283 C56.222031,81.0742193 56.4847355,81.9975018 56.0779709,82.7313244 L56.0779709,82.7313244 L51.641346,90.7352077 C51.2309798,91.4755278 50.3097264,91.7340379 49.5756244,91.3271185 L49.5756244,91.3271185 L49.3747259,91.2157587 C48.637969,90.8073677 48.3752645,89.8840852 48.7820291,89.1502625 L48.7820291,89.1502625 Z M79.968654,81.1463792 C80.3790202,80.4060591 81.3002736,80.1475491 82.0343756,80.5544684 L82.0343756,80.5544684 L82.2352741,80.6658283 C82.972031,81.0742193 83.2347355,81.9975018 82.8279709,82.7313244 L82.8279709,82.7313244 L78.391346,90.7352077 C77.9809798,91.4755278 77.0597264,91.7340379 76.3256244,91.3271185 L76.3256244,91.3271185 L76.1247259,91.2157587 C75.387969,90.8073677 75.1252645,89.8840852 75.5320291,89.1502625 L75.5320291,89.1502625 Z M29.678654,81.1463792 C30.0890202,80.4060591 31.0102736,80.1475491 31.7443756,80.5544684 L31.7443756,80.5544684 L31.9452741,80.6658283 C32.682031,81.0742193 32.9447355,81.9975018 32.5379709,82.7313244 L32.5379709,82.7313244 L28.101346,90.7352077 C27.6909798,91.4755278 26.7697264,91.7340379 26.0356244,91.3271185 L26.0356244,91.3271185 L25.8347259,91.2157587 C25.097969,90.8073677 24.8352645,89.8840852 25.2420291,89.1502625 L25.2420291,89.1502625 Z M37.6481481,0 C52.7120327,0 65.1585082,11.6318818 67.1055487,26.7144009 C69.8688914,24.7806577 73.1986731,23.6520816 76.7824074,23.6520816 C86.3578999,23.6520816 94.1203704,31.709232 94.1203704,41.6482307 C94.1203704,41.6987181 94.1201701,41.7491569 94.1197703,41.7995464 C101.548031,43.8993916 107,50.733597 107,58.8402382 L107,58.8402382 L107,59.4201699 C107,69.2054222 99.0759441,77.1263531 89.3011258,77.1263531 L89.3011258,77.1263531 L17.6988742,77.1263531 C7.93318374,77.1263531 0,69.1990249 0,59.4201699 L0,59.4201699 L0,58.8402382 C0,51.726297 4.1881673,45.5977211 10.2308343,42.7817673 C8.74626922,39.1124787 7.92592593,35.0809475 7.92592593,30.8505412 C7.92592593,13.8122578 21.2330181,0 37.6481481,0 Z"></path>
            </g>
        </g>
    </g>
</svg>