<?xml version="1.0" encoding="UTF-8"?>
<svg width="108px" height="104px" viewBox="0 0 108 104" version="1.1" xmlns="http://www.w3.org/2000/svg" xmlns:xlink="http://www.w3.org/1999/xlink">
    <!-- Generator: Sketch 63.1 (92452) - https://sketch.com -->
    <title>Showering</title>
    <desc>Created with Sketch.</desc>
    <g id="Page-1" stroke="none" stroke-width="1" fill="none" fill-rule="evenodd">
        <g id="ICONS" transform="translate(-598.000000, -86.000000)" fill="#FFFFFF">
            <g id="Showering" transform="translate(598.500000, 86.000000)">
                <path d="M37.572153,92.7654321 C38.4023995,92.7654321 39.0831579,93.4437851 39.0831579,94.2805759 L39.0831579,94.2805759 L39.0831579,102.484856 C39.0831579,103.314139 38.406658,104 37.572153,104 L37.572153,104 L37.3841628,104 C36.5539163,104 35.8731579,103.321647 35.8731579,102.484856 L35.8731579,102.484856 L35.8731579,94.2805759 C35.8731579,93.4512929 36.5496578,92.7654321 37.3841628,92.7654321 L37.3841628,92.7654321 Z M72.6568899,92.4444444 C73.4871363,92.4444444 74.1678947,93.1227974 74.1678947,93.9595883 L74.1678947,93.9595883 L74.1678947,102.163869 C74.1678947,102.993152 73.4913948,103.679012 72.6568899,103.679012 L72.6568899,103.679012 L72.4688996,103.679012 C71.6386532,103.679012 70.9578947,103.000659 70.9578947,102.163869 L70.9578947,102.163869 L70.9578947,93.9595883 C70.9578947,93.1303052 71.6343947,92.4444444 72.4688996,92.4444444 L72.4688996,92.4444444 Z M21.2405741,84.9012346 C22.0708205,84.9012346 22.7515789,85.5795876 22.7515789,86.4163784 L22.7515789,86.4163784 L22.7515789,94.6206587 C22.7515789,95.4499417 22.075079,96.1358025 21.2405741,96.1358025 L21.2405741,96.1358025 L21.0525838,96.1358025 C20.2223374,96.1358025 19.5415789,95.4574495 19.5415789,94.6206587 L19.5415789,94.6206587 L19.5415789,86.4163784 C19.5415789,85.5870954 20.2180789,84.9012346 21.0525838,84.9012346 L21.0525838,84.9012346 Z M56.6068899,83.7777778 C57.4371363,83.7777778 58.1178947,84.4561308 58.1178947,85.2929216 L58.1178947,85.2929216 L58.1178947,93.4972019 C58.1178947,94.3264849 57.4413948,95.0123457 56.6068899,95.0123457 L56.6068899,95.0123457 L56.4188996,95.0123457 C55.5886532,95.0123457 54.9078947,94.3339927 54.9078947,93.4972019 L54.9078947,93.4972019 L54.9078947,85.2929216 C54.9078947,84.4636386 55.5843947,83.7777778 56.4188996,83.7777778 L56.4188996,83.7777778 Z M88.9884688,83.7777778 C89.8187152,83.7777778 90.4994737,84.4561308 90.4994737,85.2929216 L90.4994737,85.2929216 L90.4994737,93.4972019 C90.4994737,94.3264849 89.8229738,95.0123457 88.9884688,95.0123457 L88.9884688,95.0123457 L88.8004785,95.0123457 C87.9702321,95.0123457 87.2894737,94.3339927 87.2894737,93.4972019 L87.2894737,93.4972019 L87.2894737,85.2929216 C87.2894737,84.4636386 87.9659736,83.7777778 88.8004785,83.7777778 L88.8004785,83.7777778 Z M37.6481481,0 C52.7121364,0 65.1586796,11.860625 67.1055889,27.2396873 C69.8688914,25.2676263 73.1986731,24.1168724 76.7824074,24.1168724 C86.3578999,24.1168724 94.1203704,32.3323551 94.1203704,42.4666667 C94.1203704,42.5137502 94.1202028,42.5607923 94.1198683,42.6077924 C101.548031,44.7075078 107,51.5411802 107,59.6471892 L107,59.6471892 L107,60.9371729 C107,70.7238941 99.0759441,78.6419753 89.3011258,78.6419753 L89.3011258,78.6419753 L17.6988742,78.6419753 C7.93318374,78.6419753 0,70.7152653 0,60.9371729 L0,60.9371729 L0,59.6471892 C0,52.5365001 4.18308303,46.4122598 10.2198296,43.5947394 C8.74215702,39.8604507 7.92592593,35.7595037 7.92592593,31.4567901 C7.92592593,14.0836847 21.2330181,0 37.6481481,0 Z"></path>
            </g>
        </g>
    </g>
</svg>